<svg width="7" height="11" viewBox="0 0 7 11" fill="none" xmlns="http://www.w3.org/2000/svg">
<path d="M0.792854 4.72307C0.402382 5.15258 0.402382 5.8501 0.792854 6.27961L4.79129 10.6778C5.07868 10.9939 5.50664 11.0867 5.88149 10.9149C6.25634 10.7431 6.5 10.3445 6.5 9.89779L6.49688 1.10145C6.49688 0.658202 6.25322 0.256182 5.87837 0.0843784C5.50351 -0.0874249 5.07556 0.00878492 4.78817 0.321467L0.78973 4.71963L0.792854 4.72307Z" fill="black"/>
</svg>
